<svg xmlns="http://www.w3.org/2000/svg" width="30" height="30" viewBox="0 0 30 30">
  <g fill="none" fill-rule="evenodd">
    <circle cx="15" cy="15" r="15" fill="#F5F7FA"/>
    <g transform="translate(3 5)">
      <circle cx="10" cy="10" r="9" fill="#8B939F"/>
      <path fill="#F5F7FA" d="M19,6.94747505 C17.7443594,2.91751781 14.069143,0 9.73084474,0 C4.35664759,0 0,4.4771525 0,10 C0,15.5228475 4.35664759,20 9.73084474,20 C13.7702188,20 17.2347403,17.4706854 18.706558,13.8691251 L18.1708855,13.8718586 C16.316772,16.0567792 11.2261896,17.4149223 6.57623633,15.9456551 C4.86780595,12.3327043 5.60178587,10.3724693 6.37973532,8.29655505 C6.75180317,7.30502946 7.13663387,6.27985898 7.29795925,5.01361999 C7.17270445,4.45044752 7.47936276,3.78666002 7.84940724,3.46899143 C9.12658599,2.28342827 9.63484266,2.3902768 10.5372687,2.28131048 C10.9877813,2.22744668 11.5310969,1.95680902 12.28819,2.1439338 C13.1767637,2.49021255 13.4582076,4.03452144 13.468947,4.49831758 C13.471593,4.58626583 13.4610092,4.62294756 13.4496861,4.63021997 C13.4477016,4.6334566 13.3655992,4.97617905 12.8182369,4.94485173 C12.8522841,5.28565618 12.511812,5.36980839 12.2649601,5.37052764 C12.2613802,5.3787191 12.1110667,5.78073969 11.690788,5.68096378 C11.6939787,5.68775669 11.6898541,5.72375913 11.6661184,5.76875219 C11.6257676,5.84583178 11.4941702,6.16397987 11.074125,6.08238499 C10.6408889,5.86345339 9.79192674,5.19594977 9.18230667,5.52288869 C8.86860545,5.69011423 8.76685295,6.09724949 8.9564667,6.43026207 C8.9564667,6.43026207 10.4481234,11.2285762 10.4613532,11.2289758 C10.8266505,10.3596427 11.387943,9.7788886 12.1277985,9.5044549 C13.0382402,9.16428978 13.8996928,9.40200179 14.1643272,9.51895977 C15.2348102,7.88342605 16.6541701,7.28309235 17.6562863,7.06683796 C18.1494235,6.96032327 18.6064617,6.93122454 19,6.94747505 Z"/>
    </g>
  </g>
</svg>
