<svg xmlns="http://www.w3.org/2000/svg" width="33" height="30" viewBox="0 0 33 30">
  <path fill="#F6A623" fill-rule="evenodd" d="M9.58229964,5.1924622 C8.9400228,5.85482855 8.06883091,6.39952066 7.08105476,6.6355672 C7.70535094,4.40773459 8.8962312,2.76478283 10.938776,2 L11.0236524,2 C10.9789908,3.34687141 10.3324604,4.41850477 9.58229964,5.1924622 Z M25.9882388,6.63558715 C24.8797215,6.38807235 23.9803019,5.75053726 23.3174343,5.01756637 C22.6528267,4.28250128 22.1025799,3.28835341 22.0032029,2.00001994 C23.0987663,2.27017207 23.9089593,2.98569128 24.5467893,3.74927742 C25.1931263,4.52293567 25.6740606,5.54181508 25.9882388,6.63558715 Z M6.52996692,6.98539875 C6.30327529,7.31867613 5.98397361,7.61326062 5.63973101,7.68516158 C5.37698139,5.31771546 5.75583192,3.16028794 7.08108376,2.17491577 C7.64206096,3.68962256 7.26224373,5.90927782 6.52996692,6.98539875 Z M27.3871243,7.68517155 C26.5452235,7.44294212 25.9820229,6.12160004 25.776212,5.10501429 C25.6134194,4.30103995 25.7009059,2.7806489 25.9882098,2.17492575 C27.3007978,3.10415334 27.6740415,5.3880308 27.3871243,7.68517155 Z M28.9980462,10.6152401 C28.0913764,9.76678894 27.5818277,7.5943031 27.7686913,5.80465744 C27.8217632,5.29726208 28.062472,4.88221108 28.1925901,4.44901032 C28.2609359,4.43674428 28.2654794,4.49039575 28.3198081,4.4926894 C29.3753501,5.77404219 30.048368,8.82599338 28.9980462,10.6152401 Z M4.79183664,4.53646821 C3.64755143,5.68070059 2.98681058,8.94177286 4.11359849,10.6152401 C5.11732522,9.60144666 5.88546667,5.93130683 4.79183664,4.53646821 Z M10.4725356,6.02336199 C10.1011286,7.11244704 9.20074234,7.83055907 8.35294464,8.42860348 C7.49528659,9.03352885 6.41596375,9.55927341 5.13102339,9.65301391 C6.05267712,7.55721577 7.76799324,6.28015111 10.4725356,6.02336199 Z M27.9382605,9.60933482 C26.7635241,9.64324096 25.6746309,9.08488667 24.7587774,8.47238229 C23.9707219,7.94514187 22.9533647,7.06487873 22.6391865,6.15449896 C22.589498,6.14751829 22.6034185,6.07481954 22.5967483,6.02336199 C25.4693034,6.09207178 26.8106992,7.74040864 27.9382605,9.60933482 Z M29.4219161,12.9329539 C29.1134415,10.406847 29.9013036,8.35103821 31.2448261,7.24779236 C31.2808841,7.23981445 31.2848476,7.26484515 31.2872644,7.29157117 C31.3233224,7.28359325 31.3272858,7.30862396 31.3296059,7.33525025 C31.3470066,8.19118075 31.4540205,9.02218026 31.3719475,9.78427054 C31.2997348,10.4572076 30.9600357,11.0955405 30.6514644,11.6209859 C30.3342895,12.1608913 29.9978772,12.8039112 29.4219161,12.9329539 Z M2.46022864,11.7521328 C1.88465424,10.7694532 1.33054063,9.15252941 1.73955226,7.42271811 C1.74941262,7.3814324 1.73181865,7.33326574 1.73955226,7.29158114 L1.86667358,7.29158114 C3.15451405,8.43760855 4.02048575,10.5615288 3.60490053,12.9329639 C3.14697377,12.8088076 2.77228006,12.2847584 2.46022864,11.7521328 Z M6.57239548,10.8775041 C6.08334091,12.5046995 5.41196634,14.053113 3.90159106,14.6385922 C3.74981884,12.9215455 4.72029102,11.1912356 5.63972134,10.2652989 C5.89464067,10.0086095 6.25425383,9.71970927 6.65707858,9.65309369 C6.93481207,10.0238673 6.6858863,10.4995504 6.57239548,10.8775041 Z M28.4046169,11.5335978 C28.9237359,12.3900269 29.2267003,13.4323415 29.1677315,14.6386021 C28.2091497,14.3559845 27.6735968,13.5004529 27.2176034,12.7143292 C26.7546498,11.9160391 26.323984,10.9475203 26.2848326,9.78424063 C26.2829959,9.7095474 26.3164438,9.67085452 26.3697091,9.65310366 C27.1463575,9.83878962 27.9818781,10.8361287 28.4046169,11.5335978 Z M29.337146,16.5189168 C29.4744177,13.9637902 30.2570597,12.0742212 32.1776066,11.358702 C32.2370588,12.5603754 31.7914091,13.6431778 31.3297123,14.5072857 C30.8804858,15.3480581 30.3013346,16.237097 29.337146,16.5189168 Z M3.68966097,16.5189168 C2.72817911,16.1975066 2.18837269,15.3413766 1.73953293,14.5072857 C1.28450628,13.6616267 0.860897439,12.6332736 0.849297014,11.4021816 C2.76278705,11.9629293 3.61841503,13.9889207 3.68966097,16.5189168 Z M5.4701328,19.9737128 C4.75013312,19.6891007 4.44049845,18.4659867 4.36789913,17.4372346 C4.3417015,17.0642671 4.3426682,16.6642744 4.36789913,16.3001823 C4.42396785,15.4941138 4.73582593,14.9183078 5.0038924,14.3761088 C6.31261364,15.2222664 6.07905842,18.4981975 5.4701328,19.9737128 Z M28.0654204,14.4199474 C29.0394694,15.6857433 28.9304254,19.1529449 27.6414249,19.9736729 C27.5018332,19.840342 27.423917,19.5184331 27.3447441,19.2741095 C26.9288688,17.9912609 26.9660869,15.1630902 27.9382991,14.4636265 C27.9488362,14.4161579 28.0226922,14.4340085 28.0230789,14.3761686 C28.0591369,14.3679913 28.0631004,14.3931217 28.0654204,14.4199474 Z M0.0438988704,14.8571172 C2.34116962,15.3880474 3.64186722,16.9472311 4.32542224,19.1429526 C2.04574547,18.5937729 0.885316333,16.890189 0.00146065048,14.9007963 C-0.0062729659,14.8635993 0.0179912555,14.8595106 0.0438988704,14.8571172 Z M32.9404699,14.8571172 C33.0829618,14.9381928 32.9288694,15.1299619 32.898225,15.2069488 C32.5644228,16.0497157 32.0277098,16.902455 31.414434,17.5248321 C30.7074848,18.242246 29.838613,18.9703305 28.7011914,19.1429526 C29.0848754,18.166755 29.4701062,17.2128956 30.1849824,16.4753374 C30.8835213,15.754832 31.8387195,15.0864823 32.9404699,14.8571172 Z M2.07870034,19.0117259 C2.05627286,18.9764236 2.03452206,18.9407224 2.03645546,18.8804892 C4.5057025,19.0251886 5.89930018,21.2011648 6.82665745,22.9037514 C5.09171729,22.6860541 3.84302825,21.767497 2.92649804,20.673326 C2.5548011,20.2298537 2.21742209,19.6460698 2.07870034,19.0117259 Z M25.2250758,23.7784101 C24.9266549,24.1424024 24.501596,24.5162675 24.0382557,24.5656308 C23.981027,21.6932824 25.2262359,20.1645146 26.7089635,18.8804692 C26.7450215,18.8724913 26.7489849,18.897522 26.751305,18.9241483 C26.7046133,20.6758989 26.1030346,22.7075745 25.2250758,23.7784101 Z M31.0328381,18.8804493 C30.8004429,20.0764384 29.9917966,20.8572768 29.2101213,21.5043854 C28.4324095,22.1482031 27.5025388,22.8587361 26.2002945,22.9038113 C27.3098751,21.0456553 28.3410562,19.1066232 31.0328381,18.8804493 Z M8.98867691,24.6093199 C8.00080409,24.2487181 7.49386554,23.3564881 7.08108376,22.422773 C6.66549855,21.4826755 6.34523016,20.3358503 6.31796917,19.055395 L6.31796917,18.9241583 C7.62978384,19.8724331 9.2070549,21.8176481 8.98867691,24.6093199 Z M26.5815715,23.3411506 C27.8640951,22.7730233 29.3568764,22.4151142 31.1178208,22.7288456 C30.7753183,23.4073673 29.9713122,23.8429614 29.1676928,24.1719506 C27.9301208,24.6785482 26.4504867,25.053211 24.7164165,24.7842556 C25.0492521,24.0952629 25.8314107,23.6735304 26.5815715,23.3411506 Z M8.31042909,24.8280444 C6.52870054,25.060102 5.08734779,24.6646966 3.85915284,24.1283813 C3.08192439,23.7886218 2.2980257,23.4010946 1.99399791,22.7288556 C3.71859436,22.4432463 5.18169791,22.8199036 6.48751904,23.3849394 C7.29336186,23.7334745 8.16639048,24.1538109 8.31042909,24.8280444 Z M9.4974232,22.8164332 C11.7616327,23.1593838 13.5698489,25.0813631 14.0335759,27.3207637 C13.0554668,26.7740771 12.0550268,26.3500509 11.277895,25.6150856 C10.5194206,24.8978711 10.0859514,23.9065155 9.53986142,22.9474704 C9.51743393,22.9123676 9.49568313,22.8765667 9.4974232,22.8164332 Z M23.4869939,22.8164332 C23.6419562,22.9166557 23.4355653,23.1007461 23.4021174,23.1662647 C23.0022895,23.9535852 22.461323,24.9418493 21.8336434,25.5716059 C21.0594117,26.3480565 19.983569,26.7383759 19.0782525,27.3207637 C19.1107337,26.2315789 19.8223231,25.2410211 20.5619468,24.4782328 C21.3875104,23.6265904 22.2313446,22.9783848 23.4869939,22.8164332 Z M11.3203332,26.0963134 C9.91242839,27.6065326 6.62602811,26.7753336 4.74946609,26.2273506 C5.18805881,25.6000871 6.14306376,25.4059246 7.08105476,25.3089929 C8.62545795,25.1498335 10.384179,25.4892938 11.3203332,26.0963134 Z M21.6641322,26.0963134 C23.1647438,27.5698342 26.5548712,26.8608968 28.3198758,26.1836715 C26.9368151,24.8088774 23.2323162,25.1287918 21.6641322,26.0963134 Z M24.0806069,27.4083113 C24.5514875,27.58941 25.0929373,27.759539 25.3099619,28.1953326 C24.0576961,28.6490765 22.1122082,28.6635364 20.7315644,28.2829899 C20.2692874,28.155443 19.8211244,27.8897785 19.4173329,27.8892798 C19.0160549,27.8887812 18.5786222,28.1163512 18.2302228,28.2391114 C17.8494389,28.3732401 17.5209535,28.5328981 17.1280858,28.6327217 C17.3376668,28.95483 17.717194,29.0590416 18.0184184,29.2448272 C18.8870969,29.7811425 19.7279343,30.4875869 20.392542,31.3003369 C20.2094486,31.578068 19.9408021,31.7675435 19.7140138,32 C19.1612536,31.5355857 18.7968069,30.9578849 18.2727577,30.3382004 C17.8781499,29.8715921 17.2557872,29.0149636 16.5345308,29.0263321 C15.8538758,29.0368031 15.2347999,29.8251208 14.7964971,30.2945213 C14.2641343,30.8645433 13.8294084,31.3611685 13.4823624,32 C13.2030822,31.8210953 12.8643498,31.4718621 12.761686,31.2565581 C13.5163903,30.0820096 14.9174316,29.5737168 15.941169,28.6765006 C15.2449502,28.3595779 14.4114597,28.1842632 13.6944568,27.8892798 C12.2043823,28.5819623 9.48205264,28.8058425 7.7168547,28.1953326 C8.30112941,27.5246892 9.47586574,27.0691502 10.6420951,26.9709222 C11.0408597,26.9372155 11.5166704,26.9244508 11.9561332,26.9709222 C12.716541,27.0511002 13.3747684,27.5750497 14.2030388,27.7581429 C15.0918246,27.9546987 15.9064644,28.0873316 16.5345308,28.457806 C17.5395142,28.0426552 18.8570324,27.6679924 20.0533262,27.3207537 C20.7712958,27.1123307 21.4811451,26.8901458 22.5120362,26.9709222 C23.0734001,27.0148007 23.5882656,27.2187361 24.0806069,27.4083113 Z M10.3483337,8.39548517 C10.4696548,8.24151142 10.8217277,8.26524571 11.0930809,8.28110182 C11.9438754,8.33096378 12.2558302,8.4619013 13.0365387,8.72038573 C13.3144656,8.81243092 13.6062162,8.89430427 13.8029401,9.02992881 C14.0405555,9.19347606 14.1689335,9.48457021 14.3694275,9.64871581 C14.4591375,9.37646947 14.2761408,9.15099367 14.3028217,8.94386706 C14.5810386,9.02982909 14.7539816,9.37188217 14.9693628,9.57990629 C15.0351952,9.5791085 14.9664627,9.439495 15.0525958,9.45953951 C15.1441425,9.49693598 15.183584,9.58798393 15.2358826,9.66596805 C15.2848944,9.64751912 15.2688471,9.56235488 15.3192123,9.54560126 C15.6965161,9.73427894 15.7923163,10.4217757 15.9190509,10.9034423 C15.9501787,11.0216152 15.948342,11.2287418 16.1023376,11.2471907 C16.1709734,11.0692832 16.0016072,10.9804292 15.9857533,10.8003278 C15.9667093,10.5849241 16.1070744,10.3762019 16.1023376,10.147136 C16.0972141,9.89453529 15.968256,9.59955191 15.9524021,9.28771518 C15.9468919,9.17831802 15.9478586,9.06882115 15.9524021,8.96101958 C15.9653559,8.65636297 16.0347651,8.33495274 16.0190079,8.08444622 C16.0042173,8.04246245 15.9802431,8.00985272 15.9856567,7.94692692 C15.9055171,7.89905944 15.841038,8.04894451 15.6524345,8.03288895 C15.4052488,8.01194693 15.1496527,7.81708637 14.8194273,7.79215538 C14.6666884,7.78068713 14.5120161,7.80152943 14.3527036,7.79215538 C13.7835094,7.75884759 13.2957115,7.51083417 13.1198684,7.24227763 C13.3374731,7.2259229 13.5475374,7.34150294 13.7695889,7.39694944 C14.4391267,7.56358813 15.2321124,7.57864645 15.9023269,7.75795007 C15.9332614,7.59998737 15.8160971,7.44631279 15.7858394,7.29403435 C15.7858394,7.29393462 15.7858394,7.2938349 15.7857427,7.29373518 C15.7716288,7.24546879 15.7318974,7.22323036 15.7357642,7.1563156 C15.6931326,7.09727903 15.6597814,7.02827007 15.6358072,6.95008651 C15.6034227,6.897532 15.5674614,6.84866727 15.5524775,6.77816245 C15.3011349,6.2657809 14.8981169,5.83796523 14.5027357,5.40296945 C14.8981169,5.83796523 15.3011349,6.2657809 15.5524775,6.77816245 C15.2649803,6.26229056 14.8954101,5.85870781 14.4861084,5.40296945 C14.3901149,5.29626484 14.1372257,5.06929317 14.1528863,4.92170176 C14.1682568,4.77670316 14.3054318,4.74499095 14.4531439,4.76244264 C14.4254962,4.76094678 14.3975585,4.76214347 14.3694275,4.76712966 C14.2889012,4.78139018 14.2395028,4.80861482 14.2131118,4.84401681 C14.2395994,4.80861482 14.2889012,4.78139018 14.3694275,4.76712966 C14.3975585,4.76214347 14.4254962,4.76094678 14.4531439,4.76244264 C14.4538206,4.76254236 14.4544973,4.76234291 14.455174,4.76234291 C14.4590408,4.76264209 14.4627143,4.76383877 14.4665811,4.76423767 C14.4811783,4.76623215 14.4956788,4.76862552 14.510276,4.77141779 C14.5228431,4.77391089 14.5354103,4.77580564 14.5476874,4.77939571 C14.6528646,4.80472558 14.7513715,4.84840467 14.8027034,4.88739672 C15.2430362,5.22157162 15.5694914,6.01288101 15.8357212,6.52037609 L15.8357212,6.53742888 C15.8871497,6.60484226 15.9182775,6.69309794 15.9524021,6.77816245 C15.9656459,6.81027356 15.9802431,6.84108825 15.9856567,6.881277 C16.0069241,6.93203648 16.0203613,6.99067415 16.0429821,7.0400375 C16.0203613,6.99067415 16.0069241,6.93203648 15.9857533,6.881277 C16.0370852,6.93722212 16.0499424,7.03275765 16.0857103,7.1046586 L16.0857103,7.12191084 C16.0859037,7.12230974 16.086097,7.12280836 16.0862903,7.12320725 C16.2172785,7.37999638 16.3040883,7.68215989 16.403852,7.97106012 C16.414679,7.99080545 16.4253128,8.01055079 16.4372032,8.02909944 C16.4745179,8.03967018 16.5142493,7.95749766 16.5355168,8.03298868 C16.5670313,8.2151843 16.4978154,8.49221738 16.6022192,8.63462315 C16.7462578,8.37055418 16.7817358,7.99469469 16.9188142,7.72354532 C16.9490719,7.74378928 16.9318646,7.81309741 16.9520687,7.84381238 C17.043422,7.79464848 17.0130676,7.62023133 17.1021009,7.56877378 C17.2760106,7.64157225 17.2462361,7.92448904 17.3021115,8.1189507 C17.4510803,7.96886619 17.4564938,7.67099081 17.6186098,7.53446875 C17.7032929,7.67607673 17.6765152,7.8976633 17.6685883,8.08444622 C17.6532177,8.44684299 17.6557311,8.80794334 17.8018965,9.04698161 C17.9659458,8.79178807 18.0273314,8.48324222 18.1351187,8.17040825 C18.1653764,8.08275092 18.2026911,7.99180269 18.2387491,7.89846109 C18.2696836,7.78926339 18.3014881,7.67787176 18.3373527,7.57116715 C18.3581368,7.45548739 18.3725407,7.33691564 18.418459,7.2421779 C18.4717243,7.13238186 18.6176963,7.07514032 18.7017027,6.96723903 C18.8765791,6.74246129 18.8529916,6.45545581 18.9683192,6.19378022 C19.0535823,6.2512212 19.0913803,6.34107246 19.1063642,6.44837541 C19.1264716,6.55996649 19.1153545,6.69259932 19.1043341,6.82832359 C19.0962138,6.96524455 19.090027,7.10515722 19.1144845,7.231308 C19.3486197,7.04193225 19.1186413,7.00682943 19.3438829,6.78414589 C19.7310471,6.4008071 19.9811329,6.12955801 20.3812509,5.96630993 C20.6023356,5.85711223 20.8787157,5.79488449 21.2652999,5.79279029 C21.5573406,5.77623612 21.9861696,5.78381514 22.2115079,5.87256944 C22.2014542,5.89979407 22.1915938,5.92542312 22.1816368,5.95045383 C22.1826035,5.97329061 22.1669429,6.00590033 22.1440321,6.0416015 C21.9853963,6.40718943 21.8288872,6.55388333 21.5954286,6.92764863 C21.6296499,6.9813001 21.7370505,6.95946056 21.7780387,7.00613136 C21.5782214,8.01374196 21.4724641,8.44524741 20.748791,8.96271488 C20.8688554,9.04588464 21.1737532,8.90906341 21.2873407,9.02803406 C21.2229583,9.63385694 21.1455255,9.789526 20.786589,10.0929859 C20.7816589,10.0997671 20.7765353,10.1067478 20.7713152,10.1137285 C21.204011,10.2089648 21.6725715,10.2672036 22.0050203,10.4660531 C22.0073404,10.5751511 21.8989731,10.6096556 21.8093598,10.6461546 C21.8571149,10.6206252 21.895783,10.5928023 21.9183071,10.5622867 C21.895783,10.5928023 21.8569216,10.620725 21.8090698,10.6462543 C21.8091665,10.6462543 21.8092631,10.6461546 21.8093598,10.6461546 C21.7885757,10.6572239 21.7658582,10.6676949 21.742174,10.6778668 L21.742464,10.677767 C21.5725178,10.7508647 21.341476,10.8020231 21.2538928,10.8366273 C21.341476,10.8021228 21.5723245,10.7509644 21.742174,10.6778668 C21.6105092,10.7490697 21.4994351,10.8370262 21.2865673,10.8366273 C21.3155684,10.9640745 21.5295962,10.9900027 21.5151924,11.1061811 C21.4556435,11.2267473 21.2691667,11.2645427 21.1396286,11.2913684 C20.4062885,11.4443449 19.5495004,11.2560661 19.2125081,10.7692139 C18.6917457,10.916905 18.2105214,10.9526062 17.851875,11.2815954 C17.8385345,11.2884764 17.835441,11.295856 17.8375678,11.3038339 C17.835441,11.295856 17.8385345,11.2884764 17.851875,11.2815954 C17.8532284,11.2829916 17.8547751,11.2841883 17.8560318,11.2855844 L18.3824011,11.5353929 C18.4937651,11.5719915 18.6002957,11.6134767 18.6841088,11.6784967 L19.520016,12.0750988 C19.5193393,12.0741015 19.5186626,12.073204 19.5181793,12.0722068 C20.1525292,12.2253827 20.658211,12.511391 21.0173408,12.948481 C21.0174375,12.9485807 21.0176308,12.9486804 21.0177275,12.9487801 C21.0177275,12.9546638 21.0610358,13.0056228 21.0610358,13.011307 C21.1074375,13.0782218 21.1039573,13.1063439 21.1510357,13.1723612 C21.2210249,13.3751997 21.2501227,13.6202214 21.3343224,13.8083007 C21.3531731,13.8919691 21.3754073,13.9720474 21.4176521,14.031782 C21.4391129,14.1586309 21.4931516,14.251773 21.5342364,14.3583779 C21.577738,14.4682737 21.6208529,14.5782692 21.6843652,14.6677215 C21.9312609,15.2896 22.1383285,15.9526644 22.2007775,16.7648161 C22.2020342,16.7719962 22.2027109,16.7799741 22.2029042,16.7882512 C22.2027109,16.7798744 22.2020342,16.7719962 22.2007775,16.7648161 C22.2388655,16.7942346 22.2068677,16.8960528 22.2174047,16.9538926 C22.2031942,16.9427236 22.1987474,16.9214824 22.1981674,16.8962522 C22.1987474,16.9214824 22.2031942,16.9427236 22.2174047,16.9538926 C22.225525,17.1472573 22.1958473,17.2582501 22.2174047,17.4180078 C22.2031942,17.4289774 22.1987474,17.4502186 22.1981674,17.4754488 C22.1987474,17.4502186 22.2031942,17.4289774 22.2174047,17.4180078 C22.2068677,17.475748 22.2388655,17.5775661 22.2007775,17.6069847 C22.2020342,17.5998045 22.2027109,17.5918266 22.2029042,17.5834498 C22.2027109,17.5918266 22.2020342,17.5997048 22.2007775,17.6068849 C22.0737528,19.0229648 21.5357831,20.0150184 20.8345375,20.8385386 C20.8343441,20.8386384 20.8342475,20.8388378 20.8340541,20.8390373 C20.7746019,20.914628 20.7079962,20.9833378 20.6345268,21.0447677 C20.6270832,21.0599258 20.6198329,21.0754827 20.6011756,21.0791725 C20.5471369,21.1491787 20.4862347,21.2121045 20.4183722,21.2677504 C20.4181789,21.2679499 20.4179856,21.2680496 20.4178889,21.2682491 C19.684452,21.9096734 18.7973096,22.3925367 17.8186204,22.7808616 C17.8184271,22.7808616 17.8182337,22.7809614 17.8179437,22.7809614 C17.7977397,22.7853492 17.7778256,22.7916318 17.7579115,22.7975155 C17.7022295,22.8192554 17.6466441,22.8411946 17.5911554,22.8635328 C17.3413596,22.9849965 17.107031,23.1800565 16.8364511,23.2197467 C16.8221439,23.2227384 16.8059034,23.2238353 16.7896628,23.2249323 C16.779319,23.2257301 16.769072,23.2269268 16.7587283,23.227226 C16.7582449,23.227226 16.7578583,23.2273257 16.7573749,23.2273257 C16.7565049,23.2274254 16.7562149,23.2270265 16.7553448,23.2271262 C16.6309303,23.2299185 16.4982988,23.1975082 16.3523268,23.1074575 C16.2651302,23.0537063 16.2113816,22.9473009 16.1189649,22.8838765 C15.884443,22.722922 15.5637879,22.6642844 15.2858611,22.5573803 C15.0815969,22.4786981 14.8797495,22.365312 14.7097066,22.258408 C14.6588581,22.2292886 14.6071395,22.200967 14.5527142,22.1755374 C14.492102,22.1169994 14.4059688,22.0850878 14.3350129,22.0372203 C13.9446586,21.8114453 13.582242,21.5566507 13.2510499,21.2695455 C13.2018448,21.2288581 13.1509963,21.1898661 13.1030478,21.1478823 C13.1029512,21.1477826 13.1028545,21.1476828 13.1027578,21.1474834 C13.0183647,21.0717929 12.9394818,20.990119 12.8636924,20.9053537 C12.8531554,20.8942843 12.8434883,20.8825169 12.8330479,20.8714475 C12.8233809,20.8602785 12.8130372,20.8501066 12.8035635,20.8389375 C12.8034669,20.8387381 12.8033702,20.8386384 12.8031769,20.8385386 C12.79844,20.833353 12.7940899,20.8277685 12.789353,20.8226825 C12.5628547,20.5765639 12.3558838,20.310301 12.1754005,20.016614 C12.1745305,20.006143 12.1729838,19.9961706 12.1586766,19.9994615 C12.1209752,19.9116047 12.06916,19.8383076 12.0246917,19.757631 C12.0165714,19.7372873 12.0068077,19.7183397 11.9913405,19.7056748 C11.9380752,19.5823163 11.8690527,19.4750133 11.8239077,19.3431783 C11.822941,19.3326076 11.8212976,19.3227349 11.8070871,19.3258263 C11.5045093,18.526539 11.2107286,17.4970889 11.3048854,16.4418103 C11.3182258,16.2915263 11.3422001,16.1401454 11.3722645,15.9886647 C11.3728445,15.9854735 11.3735212,15.9822824 11.3741012,15.9790912 C11.3813515,15.9427917 11.3887951,15.9064922 11.3968187,15.8699932 C11.405519,15.829605 11.4147027,15.7896157 11.4241764,15.7499256 C11.4262065,15.7416485 11.4281399,15.7334712 11.4301699,15.7251941 C11.4403203,15.6837089 11.4507607,15.6424232 11.4616844,15.6017359 C11.5108896,15.4132576 11.5664749,15.2261755 11.623027,15.042883 C11.713897,14.7477998 11.8211042,14.3575801 11.9114909,14.015527 C11.9274415,13.9312603 11.941942,13.8455974 11.9534458,13.7567434 C11.9693963,13.7222389 11.986507,13.6890309 12.004681,13.6569198 C12.004681,13.65682 12.004681,13.65682 12.004681,13.65682 C11.986507,13.6889311 11.9693963,13.7222389 11.9534458,13.7567434 C12.0115445,13.4900816 12.2123286,13.3706124 12.3532737,13.1896134 L12.3200192,13.1896134 C12.043349,13.2765727 11.7515017,13.4395216 11.4202129,13.4130947 C11.4203096,13.1772477 11.6509647,13.0328474 11.770159,12.8629178 C11.7225973,12.814452 11.5931559,12.8507515 11.5702451,12.7769558 C11.5628015,12.5859845 11.722404,12.5672364 11.770159,12.4333071 C11.5380539,12.4148582 11.231996,12.4726981 11.0536395,12.3988026 C11.0654333,12.1818034 11.2452398,12.138224 11.2869047,11.9519397 C11.1463462,11.892604 10.9314484,11.9789649 10.803747,11.9347872 C10.7011799,11.6728124 10.7443915,11.4012642 10.3871951,11.38471 C10.1919213,11.3756351 9.98669044,11.481143 9.77063253,11.4534198 C9.40927931,11.4072476 9.15445665,11.2690302 9.02085842,10.9721521 C9.47627176,10.7772915 9.99790418,10.6509413 10.3871951,10.3877699 C10.2558203,10.168078 10.2449932,10.1519228 10.109945,9.9429014 C10.1259922,9.84148216 10.2638439,9.86571508 10.3386667,9.82492799 C10.2793111,9.66706501 10.439977,9.61151878 10.3554873,9.48387215 C10.239773,9.44926794 10.0868408,9.452858 10.0354122,9.35183766 C10.2308794,9.25620241 10.5457342,9.28392567 10.7716525,9.21970345 C10.7907932,9.09833943 10.5673884,9.09105958 10.5636182,8.93908031 C10.5499877,8.84793264 10.6923829,8.91783912 10.7237041,8.87296335 C10.6343808,8.61836815 10.4707182,8.61248444 10.3483337,8.39548517 Z" transform="translate(0 -2)"/>
</svg>
