<svg xmlns="http://www.w3.org/2000/svg" width="14" height="14" viewBox="0 0 14 14">
  <g opacity=".9">
    <path fill="#8B939F" d="M10.0317379,8.61752431 L13.0689965,11.6547829 C13.4606647,12.0464512 13.4643148,12.6778209 13.0710678,13.0710678 C12.6805435,13.4615921 12.0543322,13.4685457 11.6547829,13.0689965 L8.61752431,10.0317379 C7.73148308,10.642436 6.65749832,11 5.5,11 C2.46243388,11 8.8817842e-16,8.53756612 8.8817842e-16,5.5 C8.8817842e-16,2.46243388 2.46243388,8.8817842e-16 5.5,8.8817842e-16 C8.53756612,8.8817842e-16 11,2.46243388 11,5.5 C11,6.65749832 10.642436,7.73148308 10.0317379,8.61752431 Z M5.5,9 C7.43299662,9 9,7.43299662 9,5.5 C9,3.56700338 7.43299662,2 5.5,2 C3.56700338,2 2,3.56700338 2,5.5 C2,7.43299662 3.56700338,9 5.5,9 Z" opacity=".5"/>
  </g>
</svg>
