<svg xmlns="http://www.w3.org/2000/svg" xmlns:xlink="http://www.w3.org/1999/xlink" width="18" height="16" viewBox="0 0 18 16">
  <defs>
    <path id="a" d="M4.89093383,8.84956869 C5.79389254,10.1491839 7.2975869,11 9,11 C10.7027827,11 12.2067604,10.1488144 13.1096542,8.84872213 C13.5303598,9.47573767 13.8349337,10.1746683 13.9824227,10.9121134 L14.2152873,12.0764365 C14.6486722,14.2433608 13.2034788,16 11.0041738,16 L6.99582624,16 C4.78899235,16 3.35295603,14.2352199 3.7847127,12.0764365 L4.01757732,10.9121134 C4.16490432,10.1754784 4.46974369,9.47671517 4.89093383,8.84956869 Z M9,9 C7.34314575,9 6,7.65685425 6,6 C6,4.34314575 7.34314575,3 9,3 C10.6568542,3 12,4.34314575 12,6 C12,7.65685425 10.6568542,9 9,9 Z"/>
  </defs>
  <g fill="none" fill-rule="evenodd" transform="translate(0 -1)">
    <path fill="#F9D599" d="M1.19286094,6.84956869 C0.771670794,7.47671517 0.466831419,8.17547842 0.319504423,8.9121134 L0.0866398047,10.0764365 C-0.345116871,12.2352199 1.09091945,14 3.29775335,14 L7.30610086,14 C9.50540586,14 10.9505993,12.2433608 10.5172144,10.0764365 L10.2843498,8.9121134 C10.1368608,8.17466834 9.83228695,7.47573767 9.41158132,6.84872213 C8.5086875,8.14881444 7.00470982,9 5.3019271,9 C3.599514,9 2.09581964,8.14918393 1.19286094,6.84956869 Z"/>
    <circle cx="5.3" cy="4" r="3" fill="#F6A623"/>
    <path fill="#F9D599" d="M8.59286055,6.84956869 C8.17167041,7.47671517 7.86683104,8.17547842 7.71950404,8.9121134 L7.48663942,10.0764365 C7.05488275,12.2352199 8.49091907,14 10.697753,14 L14.7061005,14 C16.9054055,14 18.3505989,12.2433608 17.917214,10.0764365 L17.6843494,8.9121134 C17.5368604,8.17466834 17.2322866,7.47573767 16.8115809,6.84872213 C15.9086871,8.14881444 14.4047094,9 12.7019267,9 C10.9995136,9 9.49581926,8.14918393 8.59286055,6.84956869 Z"/>
    <circle cx="12.7" cy="4" r="3" fill="#F6A623"/>
    <use fill="#A5ADBA" xlink:href="#a"/>
    <path stroke="#F5F7FA" d="M5.30155247,8.56427527 L4.88392616,7.96319184 L4.47585576,8.57080321 C4.00956379,9.26510572 3.6848918,10.0260313 3.52728698,10.8140553 L3.29442236,11.9783784 C2.80030464,14.448967 4.47591677,16.5 6.99582624,16.5 L11.0041738,16.5 C13.521611,16.5 15.20033,14.4521401 14.7055776,11.9783784 L14.472713,10.8140553 C14.3149679,10.0253298 13.990594,9.26427228 13.5248538,8.57013765 L13.1167673,7.96192958 L12.6989769,8.56351316 C11.862714,9.76766247 10.4934806,10.5 9,10.5 C7.50684741,10.5 6.13787828,9.76798676 5.30155247,8.56427527 Z M9,9.5 C10.9329966,9.5 12.5,7.93299662 12.5,6 C12.5,4.06700338 10.9329966,2.5 9,2.5 C7.06700338,2.5 5.5,4.06700338 5.5,6 C5.5,7.93299662 7.06700338,9.5 9,9.5 Z"/>
    <path fill="#F9D599" d="M4.89093383,8.84956869 C4.46974369,9.47671517 4.16490432,10.1754784 4.01757732,10.9121134 L3.7847127,12.0764365 C3.35295603,14.2352199 4.78899235,16 6.99582624,16 L11.0041738,16 C13.2034788,16 14.6486722,14.2433608 14.2152873,12.0764365 L13.9824227,10.9121134 C13.8349337,10.1746683 13.5303598,9.47573767 13.1096542,8.84872213 C12.2067604,10.1488144 10.7027827,11 9,11 C7.2975869,11 5.79389254,10.1491839 4.89093383,8.84956869 Z"/>
    <circle cx="9" cy="6" r="3" fill="#F6A623"/>
  </g>
</svg>
